{
  "type": "service_account",
  "project_id": "kubernetes-315301",
  "private_key_id": "${GCLOUD_PRIVATE_KEY_ID",
  "private_key": "${GCLOUD_PRIVATE_KEY}",
  "client_email": "techcon-852@kubernetes-315301.iam.gserviceaccount.com",
  "client_id": "116281327585809712108",
  "auth_uri": "https://accounts.google.com/o/oauth2/auth",
  "token_uri": "https://oauth2.googleapis.com/token",
  "auth_provider_x509_cert_url": "https://www.googleapis.com/oauth2/v1/certs",
  "client_x509_cert_url": "https://www.googleapis.com/robot/v1/metadata/x509/techcon-852%40kubernetes-315301.iam.gserviceaccount.com"
}
